<svg width="20" height="25" viewBox="0 0 20 25" fill="none" xmlns="http://www.w3.org/2000/svg">
<path d="M0.63206 5.12939V23.8627H14.9234C17.1882 23.8627 19.02 22.0309 19.02 19.766V1.93991H0" stroke="#171321" stroke-width="1.17046" stroke-miterlimit="10"/>
<path d="M14.7304 12.1815H4.92773V19.7778H14.7304V12.1815Z" fill="#F6F3FE"/>
<path d="M15.1926 0.137344H4.45947V4.28669H15.1926V0.137344Z" fill="#7759C2"/>
<path d="M7.06372 8.50031H14.7303" stroke="#171321" stroke-width="1.17046" stroke-miterlimit="10"/>
<path d="M14.7304 19.7777H4.92773V12.1815" stroke="#171321" stroke-width="1.17046" stroke-miterlimit="10"/>
<path d="M7.1925 15.9796L9.04182 14.0133L11.6812 16.8223L13.2555 14.9496" stroke="#171321" stroke-width="1.17046" stroke-miterlimit="10"/>
<path d="M4.92763 8.68763C5.03106 8.68763 5.11488 8.60374 5.11488 8.50031C5.11488 8.39688 5.03106 8.31314 4.92763 8.31314C4.82421 8.31314 4.74036 8.39688 4.74036 8.50031C4.74036 8.60374 4.82421 8.68763 4.92763 8.68763Z" fill="#171321" stroke="#171321" stroke-width="1.17046" stroke-miterlimit="10"/>
</svg>
