<svg width="32" height="32" viewBox="0 0 32 32" fill="none" xmlns="http://www.w3.org/2000/svg">
<g clip-path="url(#clip0_1145_7239)">
<path d="M19.9609 10.9425H22.0776" stroke="#171321" stroke-width="1.27982" stroke-linecap="round" stroke-linejoin="round"/>
<path d="M10.3838 10.9425H12.1861" stroke="#171321" stroke-width="1.27982" stroke-linecap="round" stroke-linejoin="round"/>
<path d="M4.73186 1.70221H29.6467C30.0998 1.70221 30.5344 1.88222 30.8548 2.20263C31.1752 2.52305 31.3552 2.95763 31.3552 3.41076V21.5649C31.3552 22.0181 31.1752 22.4527 30.8548 22.7731C30.5344 23.0935 30.0998 23.2735 29.6467 23.2735H2.3482C1.89507 23.2735 1.46049 23.0935 1.14007 22.7731C0.819656 22.4527 0.639648 22.0181 0.639648 21.5649V3.41076C0.639648 2.95763 0.819656 2.52305 1.14007 2.20263C1.46049 1.88222 1.89507 1.70221 2.3482 1.70221" stroke="#171321" stroke-width="1.27982" stroke-linecap="round" stroke-linejoin="round"/>
<path d="M30.9681 18.7333H0.639648" stroke="#171321" stroke-width="1.27982" stroke-linecap="round" stroke-linejoin="round"/>
<path d="M19.9587 25.2188V27.5065H12.0303V23.2735" stroke="#171321" stroke-width="1.27982" stroke-linecap="round" stroke-linejoin="round"/>
<path d="M10.4736 27.5161H21.5184C22.0293 27.516 22.5196 27.7177 22.8827 28.0771C23.2457 28.4366 23.4523 28.9249 23.4573 29.4358V30.2805H8.53467V29.4358C8.53973 28.9249 8.74624 28.4366 9.10931 28.0771C9.47238 27.7177 9.96266 27.516 10.4736 27.5161V27.5161Z" stroke="#171321" stroke-width="1.27982" stroke-linecap="round" stroke-linejoin="round"/>
<path d="M15.9792 14.462C17.9248 14.462 19.5019 12.8848 19.5019 10.9393C19.5019 8.99379 17.9248 7.41663 15.9792 7.41663C14.0337 7.41663 12.4565 8.99379 12.4565 10.9393C12.4565 12.8848 14.0337 14.462 15.9792 14.462Z" stroke="#171321" stroke-width="1.27982" stroke-linecap="round" stroke-linejoin="round"/>
<path d="M14.8472 11.0726L15.5206 11.7428L17.1145 10.1458" stroke="#171321" stroke-width="1.27982" stroke-linecap="round" stroke-linejoin="round"/>
<path d="M25.7292 14.462C27.6748 14.462 29.2519 12.8848 29.2519 10.9393C29.2519 8.99379 27.6748 7.41663 25.7292 7.41663C23.7837 7.41663 22.2065 8.99379 22.2065 10.9393C22.2065 12.8848 23.7837 14.462 25.7292 14.462Z" stroke="#171321" stroke-width="1.27982" stroke-linecap="round" stroke-linejoin="round"/>
<path d="M24.6001 11.0726L25.2704 11.7428L26.8675 10.1458" stroke="#171321" stroke-width="1.27982" stroke-linecap="round" stroke-linejoin="round"/>
<path d="M6.58617 14.462C8.5317 14.462 10.1089 12.8848 10.1089 10.9393C10.1089 8.99379 8.5317 7.41663 6.58617 7.41663C4.64064 7.41663 3.06348 8.99379 3.06348 10.9393C3.06348 12.8848 4.64064 14.462 6.58617 14.462Z" stroke="#171321" stroke-width="1.27982" stroke-linecap="round" stroke-linejoin="round"/>
<path d="M5.45508 11.0726L6.12534 11.7428L7.72243 10.1458" stroke="#171321" stroke-width="1.27982" stroke-linecap="round" stroke-linejoin="round"/>
</g>
<defs>
<clipPath id="clip0_1145_7239">
<rect width="31.9954" height="31.9954" fill="white"/>
</clipPath>
</defs>
</svg>
