<svg width="40" height="40" viewBox="0 0 40 40" fill="none" xmlns="http://www.w3.org/2000/svg">
<g clip-path="url(#clip0_173_920)">
<path d="M19.796 35.484C23.4477 35.484 26.408 32.5237 26.408 28.872C26.408 25.2203 23.4477 22.26 19.796 22.26C16.1443 22.26 13.184 25.2203 13.184 28.872C13.184 32.5237 16.1443 35.484 19.796 35.484Z" fill="#38F2AF"/>
<path d="M19.796 17.74C23.4477 17.74 26.408 14.7797 26.408 11.128C26.408 7.47628 23.4477 4.51599 19.796 4.51599C16.1443 4.51599 13.184 7.47628 13.184 11.128C13.184 14.7797 16.1443 17.74 19.796 17.74Z" fill="#FF675F"/>
<path d="M19.796 36.284C18.3297 36.2855 16.8959 35.8522 15.6759 35.0387C14.456 34.2252 13.5047 33.0682 12.9425 31.714C12.3803 30.3597 12.2324 28.8692 12.5174 27.4309C12.8025 25.9925 13.5078 24.6711 14.5441 23.6337C15.5804 22.5963 16.901 21.8896 18.339 21.603C19.777 21.3163 21.2678 21.4626 22.6226 22.0234C23.9774 22.5842 25.1355 23.5342 25.9503 24.7532C26.7651 25.9723 27.2 27.4057 27.2 28.872C27.1979 30.8357 26.4174 32.7185 25.0296 34.1079C23.6417 35.4972 21.7597 36.2797 19.796 36.284ZM19.796 23.06C18.6462 23.0584 17.5217 23.3979 16.5648 24.0356C15.608 24.6732 14.8618 25.5804 14.4207 26.6423C13.9796 27.7041 13.8633 28.873 14.0867 30.0009C14.3101 31.1289 14.863 32.1652 15.6755 32.9788C16.488 33.7925 17.5236 34.3468 18.6512 34.5717C19.7788 34.7966 20.9478 34.682 22.0103 34.2423C23.0728 33.8027 23.981 33.0577 24.6199 32.1018C25.2589 31.1458 25.6 30.0218 25.6 28.872C25.5989 27.3322 24.9874 25.8558 23.8994 24.7662C22.8114 23.6767 21.3357 23.0631 19.796 23.06Z" fill="#380D75"/>
<path d="M18.768 31.4561C18.6624 31.4561 18.5579 31.4353 18.4604 31.3948C18.3629 31.3543 18.2744 31.2949 18.2 31.2201L16.708 29.7241C16.5704 29.5716 16.4966 29.3721 16.502 29.1668C16.5075 28.9615 16.5916 28.7662 16.7371 28.6212C16.8826 28.4763 17.0782 28.3928 17.2835 28.3881C17.4888 28.3834 17.6881 28.4579 17.84 28.5961L18.768 29.5241L21.756 26.5321C21.8303 26.4577 21.9186 26.3988 22.0157 26.3585C22.1128 26.3183 22.2169 26.2976 22.322 26.2976C22.4271 26.2976 22.5312 26.3183 22.6283 26.3585C22.7254 26.3988 22.8137 26.4577 22.888 26.5321C22.9623 26.6064 23.0213 26.6946 23.0615 26.7917C23.1017 26.8889 23.1224 26.9929 23.1224 27.0981C23.1224 27.2032 23.1017 27.3073 23.0615 27.4044C23.0213 27.5015 22.9623 27.5897 22.888 27.6641L19.332 31.2201C19.1827 31.3703 18.9798 31.4552 18.768 31.4561Z" fill="#380D75"/>
<path d="M19.796 18.5399C18.3297 18.5415 16.8959 18.1082 15.6759 17.2947C14.456 16.4812 13.5047 15.3242 12.9425 13.9699C12.3803 12.6157 12.2324 11.1252 12.5174 9.68684C12.8025 8.24853 13.5078 6.92709 14.5441 5.8897C15.5804 4.85231 16.901 4.14559 18.339 3.85895C19.777 3.57231 21.2678 3.71862 22.6226 4.27938C23.9774 4.84014 25.1355 5.79015 25.9503 7.00922C26.7651 8.22829 27.2 9.66164 27.2 11.1279C27.1979 13.0917 26.4174 14.9745 25.0296 16.3639C23.6417 17.7532 21.7597 18.5357 19.796 18.5399ZM19.796 5.31594C18.6462 5.31436 17.5217 5.65388 16.5648 6.29155C15.608 6.92922 14.8618 7.83637 14.4207 8.89823C13.9796 9.9601 13.8633 11.1289 14.0867 12.2569C14.3101 13.3848 14.863 14.4212 15.6755 15.2348C16.488 16.0484 17.5236 16.6028 18.6512 16.8277C19.7788 17.0526 20.9478 16.9379 22.0103 16.4983C23.0728 16.0586 23.981 15.3137 24.6199 14.3577C25.2589 13.4018 25.6 12.2778 25.6 11.1279C25.5989 9.58821 24.9874 8.11173 23.8994 7.02223C22.8114 5.93273 21.3357 5.31912 19.796 5.31594Z" fill="#380D75"/>
<path d="M18.02 13.704C17.8087 13.7042 17.606 13.6208 17.456 13.472C17.3816 13.3977 17.3226 13.3095 17.2824 13.2123C17.2421 13.1152 17.2214 13.0111 17.2214 12.906C17.2214 12.8009 17.2421 12.6968 17.2824 12.5996C17.3226 12.5025 17.3816 12.4143 17.456 12.34L21.008 8.8C21.1581 8.64988 21.3617 8.56555 21.574 8.56555C21.7863 8.56555 21.9899 8.64988 22.14 8.8C22.2901 8.95011 22.3744 9.15371 22.3744 9.366C22.3744 9.57829 22.2901 9.78188 22.14 9.932L18.588 13.488C18.4345 13.6319 18.2304 13.7095 18.02 13.704Z" fill="#380D75"/>
<path d="M21.576 13.704C21.4707 13.7046 21.3663 13.6844 21.2689 13.6446C21.1714 13.6048 21.0828 13.5462 21.008 13.472L17.456 9.91601C17.3349 9.76136 17.2749 9.56756 17.2875 9.37155C17.3001 9.17554 17.3844 8.991 17.5242 8.85311C17.6641 8.71521 17.8498 8.63359 18.046 8.6238C18.2422 8.61401 18.4351 8.67672 18.588 8.8L22.14 12.356C22.2144 12.4303 22.2734 12.5185 22.3137 12.6157C22.3539 12.7128 22.3746 12.8169 22.3746 12.922C22.3746 13.0271 22.3539 13.1312 22.3137 13.2284C22.2734 13.3255 22.2144 13.4137 22.14 13.488C21.9874 13.6309 21.785 13.7085 21.576 13.704Z" fill="#380D75"/>
<path d="M31.312 40C31.0998 40 30.8964 39.9157 30.7463 39.7657C30.5963 39.6157 30.512 39.4122 30.512 39.2C30.512 38.9878 30.5963 38.7843 30.7463 38.6343C30.8964 38.4843 31.0998 38.4 31.312 38.4C31.7431 38.4 32.1566 38.229 32.4618 37.9246C32.767 37.6201 32.9389 37.2071 32.94 36.776V3.224C32.9389 2.79292 32.767 2.37986 32.4618 2.07542C32.1566 1.77097 31.7431 1.6 31.312 1.6H8.68801C8.25693 1.6 7.84344 1.77097 7.53825 2.07542C7.23305 2.37986 7.06107 2.79292 7.06001 3.224C7.06001 3.43617 6.97572 3.63966 6.82569 3.78969C6.67566 3.93971 6.47218 4.024 6.26001 4.024C6.04783 4.024 5.84435 3.93971 5.69432 3.78969C5.54429 3.63966 5.46001 3.43617 5.46001 3.224C5.46212 2.3689 5.80302 1.54949 6.40805 0.945212C7.01307 0.340938 7.8329 0.00105568 8.68801 0L31.312 0C32.1671 0.00105568 32.9869 0.340938 33.592 0.945212C34.197 1.54949 34.5379 2.3689 34.54 3.224V36.776C34.5379 37.6311 34.197 38.4505 33.592 39.0548C32.9869 39.6591 32.1671 39.9989 31.312 40Z" fill="#380D75"/>
<path d="M28.476 40H8.68801C7.8329 39.999 7.01307 39.6591 6.40805 39.0548C5.80302 38.4506 5.46212 37.6311 5.46001 36.776V6.06404C5.46001 5.85186 5.54429 5.64838 5.69432 5.49835C5.84435 5.34832 6.04783 5.26404 6.26001 5.26404C6.47218 5.26404 6.67566 5.34832 6.82569 5.49835C6.97572 5.64838 7.06001 5.85186 7.06001 6.06404V36.776C7.06107 37.2071 7.23306 37.6202 7.53825 37.9246C7.84344 38.2291 8.25693 38.4 8.68801 38.4H28.476C28.6882 38.4 28.8917 38.4843 29.0417 38.6343C29.1917 38.7844 29.276 38.9879 29.276 39.2C29.276 39.4122 29.1917 39.6157 29.0417 39.7657C28.8917 39.9158 28.6882 40 28.476 40Z" fill="#380D75"/>
</g>
<defs>
<clipPath id="clip0_173_920">
<rect width="40" height="40" fill="white"/>
</clipPath>
</defs>
</svg>
