<svg width="32" height="32" viewBox="0 0 32 32" fill="none" xmlns="http://www.w3.org/2000/svg">
<g clip-path="url(#clip0_752_2767)">
<path d="M8.15536 31.3555V22.2081H10.443L5.54134 17.6295L0.639648 22.2081H2.92732V31.3555H5.56694" stroke="#171321" stroke-width="1.27982" stroke-linecap="round" stroke-linejoin="round"/>
<path d="M18.6104 28.7671V13.71H20.8981L15.9964 9.1347L11.0947 13.71H13.3824V31.3555H18.6104" stroke="#171321" stroke-width="1.27982" stroke-linecap="round" stroke-linejoin="round"/>
<path d="M29.0675 31.3555V5.21529H31.3551L26.4535 0.639954L21.5518 5.21529H23.8394V31.3555H26.479" stroke="#171321" stroke-width="1.27982" stroke-linecap="round" stroke-linejoin="round"/>
</g>
<defs>
<clipPath id="clip0_752_2767">
<rect width="31.9954" height="31.9954" fill="white"/>
</clipPath>
</defs>
</svg>
