<svg width="58" height="54" viewBox="0 0 58 54" fill="none" xmlns="http://www.w3.org/2000/svg">
<path d="M29.0044 53.2291L39.6186 20.5803H18.4058L29.0044 53.2291Z" fill="#E24329"/>
<path d="M3.53879 20.5806L0.306538 30.4997C0.0140464 31.4004 0.329917 32.3946 1.10193 32.956L29.0045 53.2292L3.53879 20.5806Z" fill="#FCA326"/>
<path d="M3.5387 20.5806H18.4056L12.0073 0.91781C11.6798 -0.0881632 10.2527 -0.0881632 9.91344 0.91781L3.5387 20.5806Z" fill="#E24329"/>
<path d="M54.4856 20.5806L57.7063 30.4997C57.9988 31.4004 57.6829 32.3946 56.9109 32.956L29.0044 53.2292L54.4856 20.5806Z" fill="#FCA326"/>
<path d="M54.4855 20.5806H39.6187L46.0052 0.91781C46.3326 -0.0881632 47.7598 -0.0881632 48.099 0.91781L54.4855 20.5806Z" fill="#E24329"/>
<path d="M29.0044 53.2292L39.6186 20.5806H54.4856L29.0044 53.2292Z" fill="#FC6D26"/>
<path d="M29.0042 53.2292L3.5387 20.5806H18.4056L29.0042 53.2292Z" fill="#FC6D26"/>
</svg>
